<svg width="294" height="88" viewBox="0 0 294 88" fill="none" xmlns="http://www.w3.org/2000/svg">
<g clip-path="url(#clip0_8_15672)">
<path d="M282.609 0.695648H10.8696C4.86647 0.695648 0 5.56212 0 11.5652V76.7826C0 82.7857 4.86647 87.6522 10.8696 87.6522H282.609C288.612 87.6522 293.478 82.7857 293.478 76.7826V11.5652C293.478 5.56212 288.612 0.695648 282.609 0.695648Z" fill="black"/>
<path d="M282.609 2.43478C285.03 2.43478 287.353 3.39673 289.065 5.10902C290.777 6.82131 291.739 9.14367 291.739 11.5652V76.7826C291.739 79.2041 290.777 81.5265 289.065 83.2388C287.353 84.9511 285.03 85.913 282.609 85.913H10.8696C8.44802 85.913 6.12566 84.9511 4.41337 83.2388C2.70108 81.5265 1.73913 79.2041 1.73913 76.7826V11.5652C1.73913 9.14367 2.70108 6.82131 4.41337 5.10902C6.12566 3.39673 8.44802 2.43478 10.8696 2.43478H282.609ZM282.609 0.695648H10.8696C7.98678 0.695648 5.22206 1.84083 3.18362 3.87927C1.14518 5.91771 0 8.68243 0 11.5652V76.7826C0 79.6654 1.14518 82.4301 3.18362 84.4685C5.22206 86.507 7.98678 87.6522 10.8696 87.6522H282.609C285.491 87.6522 288.256 86.507 290.295 84.4685C292.333 82.4301 293.478 79.6654 293.478 76.7826V11.5652C293.478 8.68243 292.333 5.91771 290.295 3.87927C288.256 1.84083 285.491 0.695648 282.609 0.695648Z" fill="#A6A6A6"/>
<path d="M103.087 22.9565C103.123 23.7538 102.997 24.55 102.716 25.2972C102.436 26.0444 102.008 26.7272 101.456 27.3044C100.839 27.942 100.094 28.4419 99.2695 28.7716C98.4453 29.1013 97.5608 29.2532 96.6739 29.2174C95.7818 29.2373 94.8952 29.0739 94.0688 28.7374C93.2424 28.4008 92.4939 27.8983 91.8695 27.2609C90.6028 25.9651 89.8936 24.2251 89.8936 22.413C89.8936 20.601 90.6028 18.8609 91.8695 17.5652C92.838 16.6189 94.0646 15.9799 95.3951 15.7285C96.7256 15.477 98.1008 15.6245 99.3478 16.1522C100.132 16.4744 100.831 16.9728 101.391 17.6087L100.239 18.7609C99.8074 18.2408 99.2604 17.8286 98.6415 17.5569C98.0226 17.2852 97.3489 17.1615 96.6739 17.1957C95.8218 17.2015 94.984 17.4161 94.234 17.8205C93.4839 18.2249 92.8443 18.8068 92.3711 19.5155C91.8978 20.2242 91.6054 21.038 91.5193 21.8857C91.4332 22.7335 91.556 23.5895 91.8771 24.3788C92.1982 25.1682 92.7077 25.8668 93.3612 26.4138C94.0146 26.9607 94.7921 27.3393 95.6257 27.5164C96.4592 27.6935 97.3234 27.6637 98.1428 27.4297C98.9622 27.1957 99.7118 26.7645 100.326 26.1739C100.99 25.4459 101.375 24.5064 101.413 23.5217H96.6739V21.9565H103C103.049 22.2878 103.078 22.6217 103.087 22.9565Z" fill="white" stroke="white" stroke-width="0.411304" stroke-miterlimit="10"/>
<path d="M113.043 17.5217H107.174V21.6522H112.522V23.2174H107.174V27.3478H113.043V28.9565H105.478V15.913H113.043V17.5217Z" fill="white" stroke="white" stroke-width="0.411304" stroke-miterlimit="10"/>
<path d="M120.174 28.9565H118.5V17.5217H114.848V15.913H123.913V17.5217H120.174V28.9565Z" fill="white" stroke="white" stroke-width="0.411304" stroke-miterlimit="10"/>
<path d="M130.304 28.9565V15.913H131.978V28.9565H130.304Z" fill="white" stroke="white" stroke-width="0.411304" stroke-miterlimit="10"/>
<path d="M139.413 28.9565H137.739V17.5217H134.087V15.913H143.043V17.5217H139.413V28.9565Z" fill="white" stroke="white" stroke-width="0.411304" stroke-miterlimit="10"/>
<path d="M160.022 27.2609C159.394 27.8893 158.648 28.3878 157.828 28.7279C157.007 29.068 156.127 29.243 155.239 29.243C154.351 29.243 153.471 29.068 152.651 28.7279C151.83 28.3878 151.084 27.8893 150.457 27.2609C149.228 25.9545 148.543 24.2284 148.543 22.4348C148.543 20.6412 149.228 18.9151 150.457 17.6087C151.071 16.9626 151.814 16.4527 152.638 16.1119C153.462 15.7711 154.348 15.6071 155.239 15.6304C156.129 15.6164 157.013 15.7846 157.835 16.1248C158.658 16.4651 159.402 16.97 160.022 17.6087C160.647 18.2446 161.138 18.9992 161.467 19.8281C161.795 20.657 161.954 21.5434 161.935 22.4348C161.963 23.3273 161.808 24.2162 161.479 25.0464C161.15 25.8765 160.654 26.6303 160.022 27.2609ZM151.696 26.1739C152.159 26.6432 152.71 27.0159 153.319 27.2702C153.927 27.5245 154.58 27.6555 155.239 27.6555C155.898 27.6555 156.551 27.5245 157.16 27.2702C157.768 27.0159 158.32 26.6432 158.783 26.1739C159.721 25.1546 160.241 23.82 160.241 22.4348C160.241 21.0496 159.721 19.715 158.783 18.6957C158.32 18.2264 157.768 17.8537 157.16 17.5994C156.551 17.3451 155.898 17.2141 155.239 17.2141C154.58 17.2141 153.927 17.3451 153.319 17.5994C152.71 17.8537 152.159 18.2264 151.696 18.6957C150.758 19.715 150.237 21.0496 150.237 22.4348C150.237 23.82 150.758 25.1546 151.696 26.1739Z" fill="white" stroke="white" stroke-width="0.411304" stroke-miterlimit="10"/>
<path d="M164.304 28.9565V15.913H166.326L172.674 26.0652V23.5435V15.913H174.348V28.9565H172.609L165.978 18.3261V20.8261V28.9565H164.304Z" fill="white" stroke="white" stroke-width="0.411304" stroke-miterlimit="10"/>
<path d="M148.13 47.9783C146.299 47.9826 144.51 48.5299 142.989 49.5511C141.469 50.5723 140.285 52.0214 139.588 53.7152C138.891 55.4091 138.712 57.2715 139.074 59.0671C139.435 60.8627 140.321 62.5108 141.619 63.8029C142.917 65.095 144.57 65.9731 146.367 66.3262C148.164 66.6794 150.026 66.4916 151.716 65.7867C153.407 65.0818 154.85 63.8914 155.864 62.3661C156.878 60.8408 157.417 59.049 157.413 57.2174C157.431 55.9955 157.202 54.7826 156.742 53.6508C156.281 52.5189 155.597 51.4914 154.731 50.6294C153.865 49.7673 152.834 49.0883 151.7 48.6329C150.566 48.1774 149.352 47.9548 148.13 47.9783V47.9783ZM148.13 62.8261C147.008 62.9046 145.887 62.6436 144.915 62.0769C143.943 61.5103 143.163 60.6642 142.678 59.6488C142.193 58.6333 142.025 57.4954 142.195 56.3829C142.365 55.2705 142.866 54.235 143.633 53.411C144.399 52.587 145.396 52.0126 146.493 51.7626C147.59 51.5125 148.737 51.5983 149.785 52.0089C150.833 52.4194 151.733 53.1357 152.369 54.0646C153.004 54.9935 153.345 56.092 153.348 57.2174C153.383 57.9305 153.275 58.6433 153.03 59.314C152.785 59.9846 152.408 60.5994 151.922 61.1221C151.436 61.6449 150.85 62.0649 150.199 62.3576C149.547 62.6502 148.844 62.8095 148.13 62.8261ZM127.87 47.9783C126.038 47.9826 124.249 48.5299 122.728 49.5511C121.208 50.5723 120.024 52.0214 119.327 53.7152C118.63 55.4091 118.451 57.2715 118.813 59.0671C119.174 60.8627 120.06 62.5108 121.358 63.8029C122.656 65.095 124.309 65.9731 126.106 66.3262C127.903 66.6794 129.765 66.4916 131.455 65.7867C133.146 65.0818 134.59 63.8914 135.604 62.3661C136.618 60.8408 137.156 59.049 137.152 57.2174C137.17 55.9955 136.942 54.7826 136.481 53.6508C136.02 52.5189 135.336 51.4914 134.47 50.6294C133.604 49.7673 132.573 49.0883 131.439 48.6329C130.305 48.1774 129.091 47.9548 127.87 47.9783V47.9783ZM127.87 62.8261C126.747 62.9046 125.627 62.6436 124.654 62.0769C123.682 61.5103 122.903 60.6642 122.417 59.6488C121.932 58.6333 121.764 57.4954 121.934 56.3829C122.104 55.2705 122.605 54.235 123.372 53.411C124.138 52.587 125.135 52.0126 126.232 51.7626C127.329 51.5125 128.476 51.5983 129.524 52.0089C130.572 52.4194 131.472 53.1357 132.108 54.0646C132.743 54.9935 133.084 56.092 133.087 57.2174C133.122 57.9305 133.014 58.6433 132.769 59.314C132.524 59.9846 132.147 60.5994 131.661 61.1221C131.175 61.6449 130.589 62.0649 129.938 62.3576C129.287 62.6502 128.583 62.8095 127.87 62.8261ZM103.783 50.8261V54.7391H113.174C113.027 56.5822 112.261 58.3213 111 59.6739C110.058 60.6337 108.925 61.3851 107.674 61.8794C106.423 62.3737 105.083 62.5999 103.739 62.5435C100.972 62.5435 98.3175 61.4441 96.3606 59.4872C94.4037 57.5303 93.3044 54.8762 93.3044 52.1087C93.3044 49.3412 94.4037 46.6871 96.3606 44.7302C98.3175 42.7733 100.972 41.6739 103.739 41.6739C106.392 41.6345 108.954 42.642 110.87 44.4783L113.63 41.7174C112.335 40.4359 110.796 39.4259 109.105 38.7465C107.414 38.0671 105.605 37.732 103.783 37.7609C101.85 37.6857 99.9221 38.0014 98.1144 38.6891C96.3067 39.3768 94.6565 40.4223 93.2625 41.7631C91.8686 43.1038 90.7597 44.7122 90.0022 46.4917C89.2447 48.2713 88.8542 50.1855 88.8542 52.1196C88.8542 54.0536 89.2447 55.9678 90.0022 57.7474C90.7597 59.527 91.8686 61.1353 93.2625 62.4761C94.6565 63.8168 96.3067 64.8624 98.1144 65.5501C99.9221 66.2378 101.85 66.5535 103.783 66.4783C105.642 66.5525 107.497 66.2326 109.224 65.5395C110.951 64.8463 112.512 63.7957 113.804 62.4565C116.087 59.9487 117.304 56.6504 117.196 53.2609C117.203 52.4451 117.138 51.6302 117 50.8261H103.783ZM202.283 53.8696C201.716 52.2016 200.655 50.7452 199.242 49.6932C197.829 48.6411 196.13 48.0431 194.37 47.9783C193.18 47.9759 192.003 48.2175 190.911 48.6881C189.819 49.1587 188.835 49.8483 188.02 50.7142C187.205 51.5801 186.577 52.604 186.173 53.7226C185.769 54.8411 185.6 56.0306 185.674 57.2174C185.655 59.2019 186.279 61.1391 187.452 62.7397C188.626 64.3403 190.285 65.5185 192.183 66.0981C194.081 66.6778 196.116 66.6279 197.983 65.9559C199.85 65.2839 201.45 64.0258 202.543 62.3696L199.391 60.1957C198.921 60.9789 198.255 61.6256 197.458 62.0718C196.661 62.518 195.761 62.748 194.848 62.7391C193.906 62.778 192.974 62.531 192.174 62.0305C191.375 61.53 190.746 60.7994 190.37 59.9348L202.739 54.8261L202.283 53.8696ZM189.674 56.9565C189.63 56.2813 189.721 55.604 189.942 54.9644C190.163 54.3248 190.509 53.7357 190.961 53.2316C191.412 52.7275 191.96 52.3185 192.571 52.0287C193.183 51.7388 193.846 51.5739 194.522 51.5435C195.222 51.5007 195.92 51.6656 196.527 52.0175C197.134 52.3694 197.624 52.8927 197.935 53.5217L189.674 56.9565ZM179.63 65.913H183.696V38.7391H179.63V65.913ZM172.978 50.0435H172.826C172.219 49.3519 171.469 48.7996 170.629 48.4244C169.788 48.0492 168.877 47.8599 167.957 47.8696C165.581 47.9848 163.341 49.0096 161.7 50.7317C160.059 52.4538 159.144 54.7411 159.144 57.1196C159.144 59.4981 160.059 61.7853 161.7 63.5074C163.341 65.2295 165.581 66.2544 167.957 66.3696C168.878 66.3881 169.793 66.2028 170.634 65.827C171.476 65.4512 172.225 64.8942 172.826 64.1957H172.978V65.5217C172.978 69.0652 171.087 70.9565 168.043 70.9565C167.027 70.9342 166.04 70.6102 165.207 70.0258C164.375 69.4413 163.736 68.6227 163.37 67.6739L159.848 69.1304C160.499 70.7658 161.631 72.165 163.094 73.1431C164.558 74.1213 166.283 74.6323 168.043 74.6087C172.804 74.6087 176.739 71.8043 176.739 64.9783V48.5217H172.978V50.0435ZM168.304 62.8261C166.88 62.7373 165.543 62.1089 164.566 61.0688C163.589 60.0288 163.045 58.6554 163.045 57.2283C163.045 55.8012 163.589 54.4277 164.566 53.3877C165.543 52.3477 166.88 51.7192 168.304 51.6304C169.001 51.6605 169.684 51.8302 170.313 52.1296C170.942 52.429 171.505 52.852 171.967 53.3732C172.429 53.8945 172.782 54.5034 173.005 55.1638C173.227 55.8242 173.314 56.5226 173.261 57.2174C173.32 57.9145 173.237 58.6165 173.018 59.2808C172.798 59.9451 172.446 60.5579 171.983 61.0821C171.519 61.6064 170.954 62.0313 170.322 62.3311C169.69 62.6308 169.004 62.7992 168.304 62.8261V62.8261ZM221.326 38.7391H211.587V65.913H215.652V55.6087H221.326C222.485 55.6919 223.648 55.5356 224.743 55.1494C225.839 54.7632 226.843 54.1555 227.693 53.3641C228.544 52.5727 229.222 51.6147 229.686 50.5496C230.149 49.4846 230.389 48.3355 230.389 47.1739C230.389 46.0123 230.149 44.8632 229.686 43.7982C229.222 42.7332 228.544 41.7751 227.693 40.9837C226.843 40.1923 225.839 39.5846 224.743 39.1984C223.648 38.8122 222.485 38.6559 221.326 38.7391V38.7391ZM221.326 51.7826H215.652V42.5217H221.413C222.024 42.5217 222.629 42.6421 223.193 42.8759C223.758 43.1097 224.271 43.4523 224.703 43.8843C225.135 44.3163 225.477 44.8292 225.711 45.3936C225.945 45.958 226.065 46.563 226.065 47.1739C226.065 47.7848 225.945 48.3898 225.711 48.9542C225.477 49.5187 225.135 50.0315 224.703 50.4635C224.271 50.8955 223.758 51.2382 223.193 51.472C222.629 51.7058 222.024 51.8261 221.413 51.8261L221.326 51.7826ZM246.413 47.8913C244.933 47.8 243.458 48.1447 242.171 48.8826C240.885 49.6206 239.843 50.7195 239.174 52.0435L242.761 53.5435C243.123 52.89 243.667 52.3555 244.327 52.0044C244.987 51.6534 245.734 51.5008 246.478 51.5652C246.994 51.505 247.517 51.548 248.016 51.692C248.516 51.836 248.981 52.0779 249.386 52.4037C249.791 52.7295 250.126 53.1327 250.374 53.5896C250.621 54.0466 250.775 54.5482 250.826 55.0652V55.3261C249.519 54.639 248.064 54.2808 246.587 54.2826C242.717 54.2826 238.761 56.4565 238.761 60.413C238.799 61.254 239.006 62.0787 239.369 62.8382C239.732 63.5976 240.245 64.2763 240.875 64.8339C241.506 65.3916 242.242 65.8168 243.04 66.0843C243.839 66.3519 244.682 66.4563 245.522 66.3913C246.542 66.4477 247.559 66.2319 248.468 65.7658C249.377 65.2997 250.146 64.6003 250.696 63.7391H250.826V65.913H254.739V55.4565C254.739 50.6957 251.13 47.9348 246.5 47.9348L246.413 47.8913ZM245.913 62.7826C244.587 62.7826 242.739 62.1087 242.739 60.4783C242.739 58.3043 245.043 57.5652 247.087 57.5652C248.378 57.5334 249.655 57.8487 250.783 58.4783C250.646 59.6589 250.086 60.7499 249.207 61.5494C248.328 62.3488 247.188 62.8024 246 62.8261L245.913 62.7826ZM269 48.5217L264.348 60.3043H264.217L259.391 48.5217H255.043L262.283 65L258.152 74.1522H262.391L273.522 48.5217H269ZM232.478 65.913H236.522V38.7391H232.478V65.913Z" fill="white"/>
<path d="M22.6957 17.0869C21.9793 17.9339 21.6138 19.0227 21.6739 20.1304V68.2174C21.6 69.3269 21.9672 70.4207 22.6957 71.2608L22.8478 71.4348L49.7826 44.5V43.8478L22.8478 16.9348L22.6957 17.0869Z" fill="url(#paint0_linear_8_15672)"/>
<path d="M58.6956 53.4783L49.7826 44.5V43.8478L58.6956 34.8696L58.8913 35L69.5652 41.0435C72.6087 42.7609 72.6087 45.587 69.5652 47.3261L58.9348 53.3696L58.6956 53.4783Z" fill="url(#paint1_linear_8_15672)"/>
<path d="M58.9565 53.3479L49.7826 44.174L22.6957 71.2609C23.31 71.8077 24.0963 72.1223 24.9182 72.1501C25.7401 72.1779 26.5459 71.9171 27.1957 71.4131L58.9565 53.3479" fill="url(#paint2_linear_8_15672)"/>
<path d="M58.9565 35L27.1957 16.9565C26.5501 16.4455 25.745 16.1784 24.9219 16.2022C24.0989 16.2261 23.3106 16.5394 22.6957 17.087L49.7826 44.1739L58.9565 35Z" fill="url(#paint3_linear_8_15672)"/>
<path opacity="0.2" d="M58.6957 53.1522L27.1957 71.087C26.5695 71.5596 25.8063 71.8153 25.0218 71.8153C24.2372 71.8153 23.4741 71.5596 22.8479 71.087V71.087L22.6957 71.2391L22.8479 71.4131C23.4741 71.8857 24.2372 72.1413 25.0218 72.1413C25.8063 72.1413 26.5695 71.8857 27.1957 71.4131L58.9565 53.3478L58.6957 53.1522Z" fill="black"/>
<path opacity="0.12" d="M22.6956 70.9565C21.9974 70.0942 21.6552 68.9976 21.7391 67.8913V68.2174C21.6652 69.3269 22.0324 70.4207 22.7609 71.2608L22.913 71.1087L22.6956 70.9565Z" fill="black"/>
<path opacity="0.12" d="M69.5652 47L58.6956 53.1522L58.8913 53.3479L69.5652 47.3044C70.1953 47.038 70.7418 46.6066 71.1474 46.0557C71.5529 45.5048 71.8024 44.8547 71.8696 44.174C71.7336 44.7926 71.4543 45.3706 71.054 45.8615C70.6538 46.3524 70.1438 46.7424 69.5652 47Z" fill="black"/>
<path opacity="0.25" d="M27.1957 17.2608L69.5653 41.3478C70.1439 41.6055 70.6538 41.9955 71.0541 42.4863C71.4544 42.9772 71.7337 43.5553 71.8696 44.1739C71.8024 43.4931 71.553 42.8431 71.1474 42.2921C70.7419 41.7412 70.1953 41.3099 69.5653 41.0434L27.1957 16.9565C24.174 15.2174 21.674 16.6521 21.674 20.1304V20.4565C21.7392 16.9782 24.174 15.5435 27.1957 17.2608Z" fill="white"/>
</g>
<defs>
<linearGradient id="paint0_linear_8_15672" x1="47.3913" y1="19.6304" x2="10.9131" y2="56.1087" gradientUnits="userSpaceOnUse">
<stop stop-color="#00A0FF"/>
<stop offset="0.01" stop-color="#00A1FF"/>
<stop offset="0.26" stop-color="#00BEFF"/>
<stop offset="0.51" stop-color="#00D2FF"/>
<stop offset="0.76" stop-color="#00DFFF"/>
<stop offset="1" stop-color="#00E3FF"/>
</linearGradient>
<linearGradient id="paint1_linear_8_15672" x1="73.5435" y1="44.1739" x2="20.9565" y2="44.1739" gradientUnits="userSpaceOnUse">
<stop stop-color="#FFE000"/>
<stop offset="0.41" stop-color="#FFBD00"/>
<stop offset="0.78" stop-color="#FFA500"/>
<stop offset="1" stop-color="#FF9C00"/>
</linearGradient>
<linearGradient id="paint2_linear_8_15672" x1="53.9783" y1="49.174" x2="4.50002" y2="98.6305" gradientUnits="userSpaceOnUse">
<stop stop-color="#FF3A44"/>
<stop offset="1" stop-color="#C31162"/>
</linearGradient>
<linearGradient id="paint3_linear_8_15672" x1="15.8696" y1="1.08696" x2="37.9565" y2="23.1739" gradientUnits="userSpaceOnUse">
<stop stop-color="#32A071"/>
<stop offset="0.07" stop-color="#2DA771"/>
<stop offset="0.48" stop-color="#15CF74"/>
<stop offset="0.8" stop-color="#06E775"/>
<stop offset="1" stop-color="#00F076"/>
</linearGradient>
<clipPath id="clip0_8_15672">
<rect width="293.478" height="86.9565" fill="white" transform="translate(0 0.695648)"/>
</clipPath>
</defs>
</svg>
