<svg width="862" height="863" viewBox="0 0 862 863" fill="none" xmlns="http://www.w3.org/2000/svg">
<g opacity="0.1">
<path d="M573.782 712.807C718.502 718.51 835.582 733.89 835.063 747.129C834.544 760.369 716.621 766.488 571.901 760.785C427.181 755.082 310.101 739.702 310.62 726.463C311.139 713.223 429.062 707.104 573.782 712.807Z" fill="black"/>
</g>
<g opacity="0.15">
<path d="M447.836 259.574C335.411 439.973 74.6489 331.394 89.2305 534.318C106.066 768.609 360.289 738.269 560.637 736.584C739.448 735.079 840.113 529.262 823.277 332.053C806.441 134.844 570.738 62.3652 447.836 259.574Z" fill="#29D884"/>
</g>
<path d="M586.6 491.88L294.487 492.741C279.735 492.784 267.739 480.847 267.696 466.078L267.148 278.551L612.686 277.533L613.233 465.06C613.276 479.829 601.352 491.837 586.6 491.88Z" fill="#ECEEF5"/>
<path d="M585.749 201.322L293.638 202.183C278.885 202.226 266.96 214.236 267.003 229.005L267.147 278.549L612.684 277.531L612.539 227.987C612.496 213.218 600.502 201.279 585.749 201.322Z" fill="#29D884"/>
<path d="M585.747 201.322L553.691 201.417C568.444 201.373 580.438 213.312 580.481 228.082L580.626 277.628L612.682 277.534L612.537 227.988C612.494 213.218 600.5 201.279 585.747 201.322Z" fill="#0B9553"/>
<path d="M346.701 345.342L305.31 345.463L305.189 304.025L346.58 303.903L346.701 345.342Z" fill="#CACACA"/>
<path d="M421.899 345.121L380.508 345.242L380.387 303.804L421.778 303.682L421.899 345.121Z" fill="#CACACA"/>
<path d="M497.096 344.9L455.705 345.022L455.584 303.583L496.975 303.462L497.096 344.9Z" fill="#CACACA"/>
<path d="M572.291 344.679L530.9 344.801L530.779 303.363L572.17 303.241L572.291 344.679Z" fill="#CACACA"/>
<path d="M346.88 406.171L305.489 406.293L305.368 364.855L346.759 364.733L346.88 406.171Z" fill="#CACACA"/>
<path d="M422.077 405.95L380.686 406.072L380.565 364.634L421.956 364.512L422.077 405.95Z" fill="#CACACA"/>
<path d="M497.274 405.729L455.883 405.851L455.762 364.413L497.153 364.291L497.274 405.729Z" fill="#CACACA"/>
<path d="M572.47 405.509L531.079 405.631L530.957 364.192L572.348 364.071L572.47 405.509Z" fill="#CACACA"/>
<path d="M347.058 467.001L305.667 467.123L305.546 425.684L346.937 425.563L347.058 467.001Z" fill="#CACACA"/>
<path d="M422.255 466.78L380.864 466.902L380.743 425.464L422.134 425.342L422.255 466.78Z" fill="#CACACA"/>
<path d="M497.452 466.559L456.061 466.681L455.94 425.243L497.331 425.121L497.452 466.559Z" fill="#CACACA"/>
<path d="M572.648 466.338L531.257 466.46L531.136 425.022L572.527 424.9L572.648 466.338Z" fill="#CACACA"/>
<path d="M375.489 234.969L341.48 235.069C337.225 235.081 333.763 231.637 333.75 227.375L333.651 193.328C333.638 189.068 337.08 185.605 341.335 185.593L375.344 185.493C379.601 185.48 383.061 188.922 383.074 193.183L383.173 227.23C383.186 231.492 379.746 234.956 375.489 234.969Z" fill="#ECEEF5"/>
<path d="M538.097 234.491L504.088 234.591C499.833 234.604 496.371 231.16 496.358 226.898L496.259 192.85C496.246 188.59 499.688 185.128 503.943 185.115L537.952 185.015C542.209 185.003 545.669 188.445 545.682 192.705L545.781 226.752C545.794 231.014 542.354 234.479 538.097 234.491Z" fill="#ECEEF5"/>
<path d="M267.2 296.347C314.747 295.585 544.784 292.053 612.73 293.878L612.682 277.535L267.148 278.552L267.2 296.347Z" fill="#E2E3E7"/>
<path d="M427.319 305.087C431.192 301.187 433.844 298.515 433.844 298.515" stroke="#29D884" stroke-width="10.1548" stroke-linecap="round" stroke-linejoin="round"/>
<path d="M531.128 442.383L547.524 458.703L583.802 422.17" stroke="#29D884" stroke-width="10.1548" stroke-linecap="round" stroke-linejoin="round"/>
<path d="M344.748 374.706C344.748 426.693 302.654 468.835 250.728 468.835C198.801 468.835 156.707 426.693 156.707 374.706C156.707 322.72 198.801 280.577 250.728 280.577C302.654 280.577 344.748 322.72 344.748 374.706Z" fill="#CACACA"/>
<path d="M321.207 374.706C321.207 413.677 289.652 445.267 250.728 445.267C211.802 445.267 180.247 413.677 180.247 374.706C180.247 335.736 211.802 304.145 250.728 304.145C289.652 304.145 321.207 335.736 321.207 374.706Z" fill="#ECEEF5"/>
<path d="M250.727 374.706L263.14 404.566" stroke="#29D884" stroke-width="8.145" stroke-linecap="round" stroke-linejoin="round"/>
<path d="M283.184 407.064L250.686 374.748" stroke="#29D884" stroke-width="8.14602" stroke-linecap="round" stroke-linejoin="round"/>
<path d="M263.42 654.364C263.42 654.364 282.192 539.871 212.386 513.79C212.386 513.79 198.384 529.991 219.528 539.84C240.673 549.689 228.333 571.275 236.455 578.731C244.578 586.187 235.488 614.113 249.865 618.743C264.243 623.374 263.42 654.364 263.42 654.364Z" fill="#0B9553"/>
<path d="M276.404 655.537C276.404 655.537 278.794 564.741 336.292 554.964C336.292 554.964 344.676 569.482 326.973 573.943C309.271 578.403 315.586 596.816 308.247 601.353C300.906 605.891 303.791 628.701 292.057 630.143C280.323 631.587 276.404 655.537 276.404 655.537Z" fill="#0B9553"/>
<path d="M267.607 660.997C267.607 660.997 244.654 522.518 329.038 490.829C329.038 490.829 320.862 496.794 321.911 503.182C322.959 509.569 333.232 516.379 320.454 522.358C294.898 534.315 309.871 560.406 300.063 569.442C290.253 578.479 301.307 612.246 283.926 617.876C266.544 623.505 267.607 660.997 267.607 660.997Z" fill="#29D884"/>
<path d="M334.747 649.348H214.064V624.207H334.747V649.348Z" fill="#ECEEF5"/>
<path d="M329.3 649.349H219.511L232.403 728.616H316.408L329.3 649.349Z" fill="#ECEEF5"/>
<path d="M327.127 662.712L329.3 649.349H219.511L221.684 662.712H327.127Z" fill="#E2E3E7"/>
<path d="M310.519 647.026C310.519 647.026 266.238 676.013 266.065 681.42C265.893 686.827 283.848 714.134 288.6 713.977C293.352 713.819 354.776 670.698 354.724 666.98C354.671 663.263 338.874 632.007 310.519 647.026Z" fill="#FDE5DB"/>
<path d="M183.841 695.695L294.849 745.073C294.849 745.073 310.005 721.643 309.267 702.576C309.267 702.576 282.639 701.655 266.917 678.464C266.917 678.464 200.852 675.948 194.73 678.306C188.608 680.664 183.841 695.695 183.841 695.695Z" fill="#110C2F"/>
<path d="M189.236 683.803C185.984 688.964 183.841 695.695 183.841 695.695L294.849 745.073C294.849 745.073 297.858 740.418 301.129 733.574L189.236 683.803Z" fill="#F2F2F2"/>
<path d="M258.121 703.893C256.465 703.893 254.312 703.032 251.949 699.909C244.88 690.572 252.306 680.56 257.218 676.572C257.685 676.192 258.291 676.033 258.884 676.142C259.475 676.249 259.99 676.608 260.294 677.127C266.434 687.58 265.633 699.849 260.877 703.035C260.318 703.41 259.358 703.893 258.121 703.893ZM257.965 681.539C255.104 684.583 250.441 691.082 255.236 697.415C256.313 698.838 257.762 700.158 258.584 699.604C260.565 698.278 262.055 690.202 257.965 681.539Z" fill="#E8E8E8"/>
<path d="M244.018 690.381C243.975 690.381 243.933 690.38 243.889 690.376C242.753 690.308 241.886 689.332 241.956 688.194L242.596 677.64C242.662 676.504 243.648 675.652 244.775 675.707C245.912 675.775 246.778 676.754 246.709 677.892L246.073 688.443C246.008 689.537 245.098 690.381 244.018 690.381Z" fill="#E8E8E8"/>
<path d="M230.9 689.606H230.884C229.745 689.598 228.83 688.666 228.839 687.525L228.913 677.443C228.922 676.309 229.845 675.396 230.976 675.396H230.993C232.131 675.403 233.047 676.335 233.038 677.476L232.962 687.558C232.953 688.692 232.031 689.606 230.9 689.606Z" fill="#E8E8E8"/>
<path d="M215.49 688.175C214.408 688.175 213.5 687.329 213.434 686.235L212.902 677.423C212.834 676.285 213.7 675.308 214.837 675.238C215.984 675.191 216.951 676.036 217.019 677.174L217.55 685.986C217.618 687.125 216.752 688.102 215.616 688.17C215.573 688.173 215.531 688.175 215.49 688.175Z" fill="#E8E8E8"/>
<path d="M400.886 556.067C400.886 556.067 300.609 652.087 298.998 654.764C297.385 657.441 318.083 687.87 323.318 691.911C328.555 695.952 435.301 626.267 446.87 615.599C452.736 610.19 456.912 577.836 448.119 564.688C439.571 551.906 416.507 546.386 400.886 556.067Z" fill="#1C1548"/>
<path d="M672.581 624.895C672.581 624.895 705.894 638.076 680.088 680.598C654.281 723.12 621.869 732.077 548.417 690.662C474.966 649.248 411.943 619.459 411.943 619.459C411.943 619.459 381.225 597.002 393.291 575.365C405.356 553.73 414.74 544.09 449.426 550.902C466.616 554.277 510.234 557.116 563.291 575.585C617.285 594.381 659.943 616.392 672.581 624.895Z" fill="#1C1548"/>
<path d="M564.555 613.236C564.555 613.236 548.278 638.504 531.684 642.161C515.088 645.818 398.414 661.039 389.009 669.84C379.602 678.64 375.261 695.94 386.944 722.509C398.627 749.078 514.953 747.712 530.015 748.418C545.077 749.122 643.551 741.202 673.014 707.518C694.206 683.288 681.481 622.012 650.322 606.152C638.163 599.964 581.409 600.692 564.555 613.236Z" fill="#211952"/>
<path d="M261.834 688.621C261.834 688.621 208.942 689.893 205.95 694.396C202.956 698.899 203.84 731.581 207.961 733.955C212.082 736.328 286.984 732.091 288.896 728.904C290.808 725.719 293.837 690.818 261.834 688.621Z" fill="#FDE5DB"/>
<path d="M414.911 662.189C414.911 662.189 245.938 687.812 243.22 689.349C240.501 690.888 246.787 728.936 249.362 735.032C251.936 741.128 511.077 752.055 526.389 748.46C534.154 746.638 452.321 716.091 451.121 700.313C449.953 684.974 433.268 661.447 414.911 662.189Z" fill="#211952"/>
<path d="M152.412 637.489L190.389 753.005C190.389 753.005 217.909 748.519 231.528 735.172C231.528 735.172 214.332 714.795 220.943 687.56C220.943 687.56 178.451 636.853 172.594 633.894C166.739 630.935 152.412 637.489 152.412 637.489Z" fill="#110C2F"/>
<path d="M164.837 633.505C158.834 634.559 152.414 637.489 152.414 637.489L190.389 753.005C190.389 753.005 195.856 752.111 203.117 749.945L164.837 633.505Z" fill="#F2F2F2"/>
<path d="M200.079 699.737C199.597 699.737 199.138 699.685 198.701 699.576C197.172 699.193 193.754 697.58 195.02 690.853C197.186 679.338 209.591 678.127 215.835 679.092C216.428 679.185 216.952 679.528 217.269 680.041C217.588 680.551 217.668 681.173 217.489 681.748C214.156 692.41 205.727 699.737 200.079 699.737ZM212.189 682.977C207.914 682.977 200.485 684.094 199.071 691.619C198.741 693.371 198.733 695.328 199.7 695.571C202.018 696.154 208.992 691.832 212.66 682.982C212.508 682.979 212.349 682.977 212.189 682.977Z" fill="#E8E8E8"/>
<path d="M198.276 679.246C197.672 679.246 197.074 678.98 196.666 678.47C195.955 677.581 196.097 676.285 196.986 675.572L205.224 668.959C206.109 668.247 207.406 668.388 208.122 669.28C208.833 670.17 208.69 671.467 207.802 672.182L199.564 678.791C199.183 679.096 198.729 679.246 198.276 679.246Z" fill="#E8E8E8"/>
<path d="M190.044 668.995C189.475 668.995 188.911 668.76 188.505 668.305C187.746 667.453 187.821 666.15 188.67 665.391L196.185 658.679C197.033 657.919 198.336 657.996 199.096 658.845C199.853 659.696 199.779 661.001 198.929 661.76L191.415 668.472C191.023 668.822 190.532 668.995 190.044 668.995Z" fill="#E8E8E8"/>
<path d="M180.758 656.6C180.238 656.6 179.717 656.404 179.317 656.011C178.503 655.213 178.488 653.907 179.285 653.093L185.451 646.785C186.25 645.97 187.556 645.956 188.366 646.752C189.181 647.55 189.195 648.856 188.399 649.671L182.231 655.979C181.828 656.392 181.293 656.6 180.758 656.6Z" fill="#E8E8E8"/>
<path d="M519.119 475.942C519.119 475.942 453.422 443.655 445.972 448.48C438.522 453.303 437.878 458.03 440.826 462.241C443.775 466.454 501.167 506.689 516.891 507.125C532.614 507.561 541.472 491.854 519.119 475.942Z" fill="#FDE5DB"/>
<path d="M395.145 451.659L391.621 455.262C391.621 455.262 395.137 460.469 403.136 454.156C411.135 447.842 415.826 445.13 423.492 447.375C431.156 449.619 416.79 434.051 415.098 435.11C413.404 436.169 395.145 451.659 395.145 451.659Z" fill="#EEC5B5"/>
<path d="M392.262 446.497L387.713 452.542C387.713 452.542 390.74 457.46 397.894 451.883C405.046 446.306 413.745 442.405 423.084 448.077C432.426 453.749 422.352 436.348 411.053 437.088C399.756 437.827 392.262 446.497 392.262 446.497Z" fill="#F6CFBE"/>
<path d="M456.767 449.583C455.681 448.897 427.452 433.317 403.415 433.15C399.935 433.125 385.294 447.568 385.294 447.568C385.294 447.568 387.961 453.097 397.771 445.383C407.582 437.671 420.598 444.984 421.287 449.573C421.976 454.16 417.297 455.68 415.813 455.545C414.329 455.41 406.963 455.343 405.552 458.297C405.552 458.297 414.129 464.269 418.11 463.656C422.092 463.043 431.831 458.664 435.092 459.274C438.355 459.882 451.719 470.962 452.565 471.568C453.411 472.174 461.201 469.011 462.758 463.013C464.317 457.016 462.523 453.223 456.767 449.583Z" fill="#FDE5DB"/>
<path d="M547.437 450.494L512.335 479.29C512.335 479.29 499.483 486.982 504.825 498.75C510.166 510.517 524.138 505.74 524.138 505.74C524.138 505.74 551.225 499.155 566.59 480.655C581.954 462.154 547.437 450.494 547.437 450.494Z" fill="#FDE5DB"/>
<path d="M547.436 450.488L528.621 465.924C527.562 471.397 525.012 490.942 540.201 499.853C548.779 495.88 559.081 489.689 566.59 480.65C581.955 462.148 547.436 450.488 547.436 450.488Z" fill="#F6CFBE"/>
<path d="M602.138 410.671C602.138 410.671 547.555 435.758 530.538 455.136C523.687 462.936 530.257 489.716 543.606 496.927C556.957 504.138 605.751 490.543 614.811 469.557C623.872 448.572 648.953 402.572 602.138 410.671Z" fill="#ECEEF5"/>
<path d="M687.105 599.895C696.22 541.733 729.081 446.179 725.057 436.591C720.029 424.609 664.567 393.044 621.156 403.542C579.578 413.597 587.21 482.449 574.108 533.365C559.325 590.819 544.267 611.761 549.366 619.857C552.877 625.432 567.945 638.64 612.069 642.272C683.477 649.956 680.995 713.108 689.889 675.409C694.389 656.342 689.845 646.926 688.59 638.532C685.947 620.834 686.268 607.97 687.105 599.895Z" fill="#F7F7F7"/>
<path d="M655.991 420.163C647.66 420.163 639.87 417.148 637.535 412.917C636.356 410.779 636.2 408.788 637.07 407C639.197 402.628 646.875 401.339 647.201 401.285L647.53 403.322C645.601 403.636 640.296 405.076 638.921 407.906C638.357 409.07 638.496 410.381 639.342 411.917C641.411 415.67 649.249 418.391 657.208 418.077C661.652 417.908 672.494 416.425 677.107 406.323L678.983 407.184C675.397 415.031 667.489 419.753 657.284 420.137C656.85 420.155 656.421 420.163 655.991 420.163Z" fill="#ECEEF5"/>
<path d="M679.02 383.083C682.907 372.271 649.823 387.783 649.823 387.783C649.823 387.783 649.745 394.543 647.353 401.654C644.018 405.935 642.339 409.334 646.886 412.02C654.337 416.423 670.465 414.706 675.703 405.994C675.703 405.994 674.815 394.774 679.02 383.083Z" fill="#FDE5DB"/>
<path d="M678.043 383.658C678.545 381.86 678.26 380.482 677.43 379.427C670.918 377.898 649.822 387.781 649.822 387.781C649.822 387.781 649.743 394.542 647.351 401.653C646.525 402.713 645.802 403.718 645.249 404.673C645.258 404.67 674.6 395.992 678.043 383.658Z" fill="#F6CFBE"/>
<path d="M712.035 496.276C701.243 479.62 692.372 467.394 692.372 467.394L679.336 449.689C679.336 449.689 663.649 479.247 673.868 532.403C693.228 633.126 569.729 637.766 555.598 591.569C549.768 607.284 546.602 615.467 549.365 619.857C552.877 625.434 567.945 638.64 612.069 642.272C683.476 649.956 680.993 713.109 689.889 675.409C694.388 656.342 689.845 646.928 688.59 638.533C685.945 620.834 686.268 607.97 687.105 599.896C691.84 569.681 702.983 529.379 712.035 496.276Z" fill="#EDF0F1"/>
<path d="M744.228 744.973L820.355 750.539C820.355 750.539 824.435 743.667 804.755 740.436C785.074 737.205 776.486 738.369 767.224 733.436C757.961 728.502 746.027 723.373 738.672 729.109C731.317 734.844 729.201 745.444 744.228 744.973Z" fill="#F6CFBE"/>
<path d="M791.453 741.817C790.693 740.528 789.146 739.298 787.187 738.158C778.777 737.251 773.13 736.583 767.224 733.437C757.961 728.504 746.026 723.375 738.672 729.109C731.316 734.845 729.2 745.444 744.228 744.975L761.144 746.21C770.382 746.885 795.037 747.903 791.453 741.817Z" fill="#FDE5DB"/>
<path d="M716.396 702.113C716.396 702.113 721.654 738.314 737.033 743.393C752.41 748.473 764.074 732.821 764.074 732.821C764.074 732.821 747.79 734.615 748.142 681.495C748.494 628.373 714.821 681.36 714.821 681.36L716.396 702.113Z" fill="#FDE5DB"/>
<path d="M701.968 608.552C701.968 608.552 712.571 713.983 724.183 719.457C735.795 724.929 742.085 722.111 745 715.268C747.913 708.424 753.408 607.13 741.924 587.466C730.441 567.804 704.404 568.915 701.968 608.552Z" fill="#FDE5DB"/>
<path d="M698.206 536.611L699.014 602.336C699.014 602.336 696.093 623.822 714.192 628.415C732.29 633.007 739.513 612.887 739.513 612.887C739.513 612.887 756.53 576.302 749.523 542.205C742.515 508.108 698.206 536.611 698.206 536.611Z" fill="#FDE5DB"/>
<path d="M750.246 574.141C751.546 564.075 751.743 553.017 749.523 542.206C742.515 508.11 698.204 536.611 698.204 536.611L698.635 571.582C698.635 571.584 716.487 591.1 750.246 574.141Z" fill="#F6CFBE"/>
<path d="M701.572 426.901C701.572 426.901 651.348 448.715 676.938 512.465C700.781 571.863 692.972 571.405 704.381 573.851C715.79 576.297 756.043 576.473 753.264 556.771C753.264 556.771 743.777 407.057 701.572 426.901Z" fill="#F7F7F7"/>
<path d="M705.242 354.882C699.649 385.794 657.673 400.447 636.447 388.754C615.221 377.062 629.143 335.989 646.013 309.488C662.328 283.86 668.658 316.986 692.446 321.615C700.815 323.243 710.611 325.216 705.242 354.882Z" fill="#FDE5DB"/>
<path d="M666.98 327.819C666.98 327.819 646.374 342.952 630.144 330.274C630.144 330.274 614.547 320.165 634.093 303.471C641.404 297.228 652.375 296.203 669.833 297.171C705.431 299.145 730.591 335.565 703.632 367.893C698.51 374.035 690.685 383.416 681.452 385.455C681.452 385.455 695.657 373.236 688.225 363.105C682.924 355.88 675.612 364.188 675.612 364.188C675.612 364.188 674.84 363.83 677.112 355.818C682.942 335.263 661.746 351.421 666.98 327.819Z" fill="#1C1548"/>
<path d="M665.826 344.856C665.483 344.932 665.108 344.832 664.848 344.555C661.089 340.53 657.266 342.649 657.224 342.676C656.733 342.958 656.102 342.786 655.818 342.292C655.535 341.797 655.708 341.167 656.203 340.884C658.007 339.849 662.466 338.982 666.359 343.146C666.747 343.561 666.723 344.214 666.309 344.603C666.169 344.733 666.001 344.817 665.826 344.856Z" fill="#110C2F"/>
<path d="M645.288 337.062C644.821 337.166 644.334 336.93 644.13 336.483C644.078 336.387 643.069 334.7 638.125 333.017C637.587 332.833 637.298 332.246 637.48 331.707C637.667 331.164 638.256 330.878 638.79 331.062C644.703 333.075 645.851 335.247 646.022 335.661C646.239 336.188 645.986 336.794 645.46 337.01C645.403 337.033 645.348 337.049 645.288 337.062Z" fill="#110C2F"/>
<path d="M666.55 360.811C665.513 363.481 662.509 364.807 659.841 363.771C657.171 362.734 655.85 359.728 656.887 357.058C657.924 354.388 660.928 353.062 663.596 354.099C666.265 355.135 667.587 358.14 666.55 360.811Z" fill="#FBCCCA"/>
<path d="M638.076 355.209C636.986 358.017 633.828 359.411 631.022 358.32C628.216 357.231 626.825 354.073 627.916 351.265C629.007 348.457 632.167 347.062 634.972 348.152C637.777 349.241 639.167 352.401 638.076 355.209Z" fill="#FBCCCA"/>
<path d="M658.929 362.728C657.108 363.132 655.278 363.009 653.575 362.348C650.882 361.302 648.86 359.041 647.884 355.98C646.931 352.998 647.089 349.6 648.328 346.411C649.566 343.222 651.742 340.608 654.458 339.049C657.246 337.45 660.263 337.144 662.958 338.191C665.652 339.238 667.672 341.5 668.648 344.56C669.601 347.542 669.443 350.941 668.203 354.13C666.964 357.318 664.788 359.931 662.074 361.491C661.048 362.079 659.991 362.493 658.929 362.728ZM658.042 339.831C657.183 340.021 656.322 340.358 655.484 340.839C653.177 342.164 651.318 344.406 650.25 347.156C649.181 349.907 649.04 352.817 649.847 355.351C650.631 357.806 652.221 359.609 654.322 360.424C656.424 361.24 658.818 360.983 661.047 359.7C663.355 358.377 665.213 356.133 666.282 353.383C667.349 350.634 667.493 347.723 666.686 345.188C665.902 342.734 664.312 340.931 662.211 340.115C660.897 339.606 659.472 339.514 658.042 339.831Z" fill="#29D884"/>
<path d="M636.522 355.678C635.167 355.978 633.816 355.914 632.558 355.426C627.85 353.598 626.197 346.504 628.875 339.611C631.553 332.721 637.554 328.601 642.267 330.43C646.974 332.259 648.626 339.352 645.951 346.244C643.988 351.294 640.239 354.854 636.522 355.678ZM638.663 332.178C635.651 332.845 632.501 335.966 630.796 340.359C628.532 346.189 629.658 352.085 633.306 353.502C636.949 354.912 641.762 351.329 644.029 345.498C646.293 339.667 645.168 333.771 641.52 332.353C640.62 332.005 639.647 331.96 638.663 332.178ZM644.99 345.871L645.008 345.867L644.99 345.871Z" fill="#29D884"/>
<path d="M652.702 342.857C652.389 342.926 652.045 342.847 651.787 342.612C649.292 340.345 646.466 340.696 646.348 340.711C645.785 340.788 645.266 340.396 645.187 339.834C645.108 339.271 645.493 338.743 646.058 338.67C646.214 338.648 649.94 338.143 653.174 341.085C653.595 341.469 653.627 342.121 653.243 342.543C653.095 342.706 652.905 342.812 652.702 342.857Z" fill="#29D884"/>
<path d="M686.88 359.606C686.65 359.657 686.401 359.631 686.177 359.512L667.738 349.817C667.234 349.553 667.04 348.929 667.306 348.424C667.571 347.92 668.197 347.726 668.697 347.99L687.137 357.686C687.641 357.951 687.834 358.574 687.568 359.079C687.422 359.359 687.166 359.543 686.88 359.606Z" fill="#29D884"/>
<path d="M641.829 362.533C641.626 362.577 641.41 362.562 641.206 362.476C639.772 361.871 639.319 360.862 639.196 360.12C638.626 356.76 643.708 351.968 644.732 351.042C645.161 350.656 645.809 350.694 646.187 351.115C646.569 351.537 646.536 352.191 646.113 352.574C643.916 354.563 640.944 358.112 641.227 359.773C641.268 360.011 641.392 360.317 642.008 360.576C642.533 360.796 642.778 361.401 642.557 361.927C642.421 362.248 642.144 362.463 641.829 362.533Z" fill="#F6CFBE"/>
<path d="M675.619 364.198C671.875 369.524 672.239 376.232 676.433 379.184C680.628 382.136 687.062 380.213 690.807 374.888C694.552 369.563 694.188 362.854 689.993 359.902C685.799 356.95 679.364 358.873 675.619 364.198Z" fill="#FDE5DB"/>
<path d="M683.305 377.37C682.812 377.479 682.298 377.211 682.119 376.721C681.92 376.187 682.193 375.593 682.727 375.396C683.986 374.928 685.15 374.002 686.002 372.786C687.897 370.091 687.792 366.741 685.769 365.317C684.863 364.679 683.651 364.512 682.417 364.857C681.858 365.016 681.299 364.682 681.153 364.131C681.002 363.581 681.329 363.014 681.879 362.864C683.748 362.362 685.541 362.633 686.956 363.629C689.909 365.708 690.236 370.349 687.689 373.972C686.598 375.527 685.091 376.718 683.442 377.329C683.397 377.347 683.353 377.36 683.305 377.37Z" fill="#F6CFBE"/>
<path d="M632.903 368.55L647.863 369.661C647.863 369.661 643.087 379.415 636.445 376.895C631.605 375.059 632.903 368.55 632.903 368.55Z" fill="#FFB9BA"/>
<path d="M647.862 369.659L632.901 368.55C632.901 368.55 632.725 369.443 632.747 370.659L645.554 373.176C647.259 371.211 647.862 369.659 647.862 369.659Z" fill="white"/>
<path d="M638.302 342.808C637.323 344.587 635.695 345.569 634.666 345.003C633.638 344.436 633.597 342.536 634.577 340.756C635.556 338.978 637.183 337.996 638.212 338.562C639.241 339.129 639.281 341.03 638.302 342.808Z" fill="#110C2F"/>
<path d="M656.509 348.899C655.53 350.677 653.902 351.662 652.874 351.094C651.845 350.528 651.805 348.628 652.785 346.848C653.764 345.069 655.391 344.088 656.419 344.654C657.448 345.221 657.488 347.12 656.509 348.899Z" fill="#110C2F"/>
</svg>
