<svg width="862" height="862" viewBox="0 0 862 862" fill="none" xmlns="http://www.w3.org/2000/svg">
<g opacity="0.15">
<path d="M753.637 176.781C540.434 -26.9377 533.699 397.328 354.625 392.281C120.094 385.671 37.039 459.621 71.7817 579.159C133.787 792.498 350.558 770.364 548.239 767.722C800.284 764.355 876.603 294.277 753.637 176.781Z" fill="#29D884"/>
</g>
<g opacity="0.15">
<path d="M457.938 122.902C422.582 38.7226 297.996 62.2929 218.867 126.269C139.738 190.246 72.1992 369.954 117.852 385.543C156.611 398.778 217.909 375.778 285.399 371.727C338.103 368.564 392.917 378.492 412.48 355.238C469.277 287.726 493.293 207.082 457.938 122.902Z" fill="#29D884"/>
</g>
<g opacity="0.1">
<path d="M537.011 755.086C661.551 755.086 762.667 762.82 762.667 772.345C762.667 781.87 661.551 789.604 537.011 789.604C412.471 789.604 311.355 781.87 311.355 772.345C311.355 762.82 412.471 755.086 537.011 755.086Z" fill="black"/>
</g>
<path d="M294.117 693.712H158.488V760.608C158.488 766.274 163.081 770.868 168.747 770.868H283.858C289.524 770.868 294.117 766.274 294.117 760.608V693.712Z" fill="#ECEEF5"/>
<path d="M294.117 693.712H158.488V701.377H294.117V693.712Z" fill="#E2E3E7"/>
<path d="M297.233 693.711H155.371C151.429 693.711 148.232 690.515 148.232 686.573V668.727C148.232 664.784 151.429 661.588 155.371 661.588H297.233C301.175 661.588 304.37 664.784 304.37 668.727V686.573C304.37 690.515 301.175 693.711 297.233 693.711Z" fill="#ECEEF5"/>
<path d="M246.633 717.701H205.972C202.829 717.701 200.279 715.153 200.279 712.008C200.279 708.865 202.829 706.316 205.972 706.316H246.633C249.777 706.316 252.325 708.865 252.325 712.008C252.325 715.153 249.777 717.701 246.633 717.701Z" fill="#29D884"/>
<path d="M440.001 693.712H304.371V760.608C304.371 766.274 308.964 770.868 314.63 770.868H429.741C435.407 770.868 440.001 766.274 440.001 760.608V693.712Z" fill="#ECEEF5"/>
<path d="M392.517 717.701H351.855C348.711 717.701 346.163 715.153 346.163 712.008C346.163 708.865 348.711 706.316 351.855 706.316H392.517C395.66 706.316 398.208 708.865 398.208 712.008C398.208 715.153 395.66 717.701 392.517 717.701Z" fill="#29D884"/>
<path d="M294.117 584.432H158.488V651.33C158.488 656.996 163.081 661.59 168.747 661.59H283.858C289.524 661.59 294.117 656.996 294.117 651.33V584.432Z" fill="#29D884"/>
<path d="M294.117 584.432H158.488V592.099H294.117V584.432Z" fill="#29D884"/>
<path d="M297.711 586.198L155.921 590.738C151.982 590.863 148.685 587.772 148.559 583.831L147.987 565.995C147.861 562.054 150.953 558.757 154.893 558.632L296.683 554.092C300.624 553.967 303.92 557.06 304.046 560.999L304.617 578.836C304.743 582.777 301.651 586.072 297.711 586.198Z" fill="#29D884"/>
<path d="M521.367 769.104L414.566 675.731C411.598 673.137 411.295 668.628 413.891 665.659L425.636 652.225C428.232 649.257 432.741 648.953 435.709 651.549L542.509 744.92C545.478 747.516 545.78 752.025 543.185 754.993L531.439 768.428C528.844 771.396 524.335 771.698 521.367 769.104Z" fill="#ECEEF5"/>
<path d="M246.633 608.422H205.972C202.829 608.422 200.279 605.874 200.279 602.729C200.279 599.585 202.829 597.036 205.972 597.036H246.633C249.777 597.036 252.325 599.585 252.325 602.729C252.325 605.874 249.777 608.422 246.633 608.422Z" fill="#F2F6F8"/>
<path d="M88.2864 461.918L392.657 462.683C401.661 462.683 408.961 455.382 408.961 446.378L408.798 380.829C408.798 371.824 401.498 364.524 392.494 364.524L88.1222 363.759C79.1177 363.759 71.8173 371.059 71.8173 380.064L71.9815 445.613C71.9815 454.617 79.2819 461.918 88.2864 461.918Z" fill="#51E39D"/>
<path d="M102.454 461.918V480.656C102.454 485.421 108.214 487.807 111.582 484.438L134.102 461.918H102.454Z" fill="#51E39D"/>
<path d="M87.3824 340.908L318.525 341.254C327.529 341.254 334.829 333.954 334.829 324.949L334.567 300.592C334.567 291.587 327.266 284.287 318.262 284.287L87.1183 283.939C78.1138 283.939 70.8146 291.24 70.8146 300.244L71.0764 324.603C71.0764 333.607 78.378 340.908 87.3824 340.908Z" fill="#51E39D"/>
<path d="M461.293 267.109L256.222 266.922C247.218 266.922 239.917 259.621 239.917 250.617V210.935C239.917 201.931 247.218 194.63 256.222 194.63L461.293 194.817C470.297 194.817 477.598 202.118 477.598 211.122V250.803C477.598 259.808 470.297 267.109 461.293 267.109Z" fill="#29D884"/>
<path d="M447.125 267.109V285.847C447.125 290.612 441.365 292.998 437.997 289.629L415.476 267.109H447.125Z" fill="#29D884"/>
<path d="M461.293 184.541H151.624C142.619 184.541 135.318 177.24 135.318 168.236V128.555C135.318 119.551 142.619 112.25 151.624 112.25H461.293C470.298 112.25 477.598 119.551 477.598 128.555V168.236C477.598 177.24 470.298 184.541 461.293 184.541Z" fill="#29D884"/>
<path d="M205.096 148.396C205.096 161.539 194.44 172.194 181.297 172.194C168.155 172.194 157.5 161.539 157.5 148.396C157.5 135.253 168.155 124.598 181.297 124.598C194.44 124.598 205.096 135.253 205.096 148.396Z" fill="white"/>
<path d="M447.309 152.573H228.081C225.775 152.573 223.905 150.703 223.905 148.396C223.905 146.09 225.775 144.219 228.081 144.219H447.309C449.615 144.219 451.485 146.09 451.485 148.396C451.485 150.703 449.615 152.573 447.309 152.573Z" fill="#19AB65"/>
<path d="M444.734 154.173L228.555 153.991C226.445 153.991 224.736 152.281 224.736 150.172V146.619C224.736 144.509 226.445 142.801 228.555 142.801L444.734 142.983C446.842 142.983 448.552 144.691 448.552 146.801V150.354C448.552 152.463 446.842 154.173 444.734 154.173Z" fill="white"/>
<path d="M457.621 148.396C457.621 143.682 453.8 139.861 449.086 139.861C444.373 139.861 440.552 143.682 440.552 148.396C440.552 153.109 444.373 156.93 449.086 156.93C453.8 156.93 457.621 153.109 457.621 148.396Z" fill="white"/>
<path d="M172.819 155.791V140.999C172.819 138.62 175.322 137.073 177.449 138.137L192.242 145.534C194.6 146.713 194.6 150.079 192.242 151.257L177.449 158.654C175.322 159.718 172.819 158.17 172.819 155.791Z" fill="#29D884"/>
<path d="M363.483 613.889C363.483 613.889 328.89 644.235 329.401 648.906C329.912 653.578 348.709 674.871 352.783 674.154C356.855 673.437 404.484 628.838 403.985 625.649C403.485 622.458 386.066 597.504 363.483 613.889Z" fill="#FDE5DB"/>
<path d="M450.919 510.89C450.919 510.89 350.738 623.778 349.781 626.319C348.823 628.86 373.025 650.037 378.139 652.664C383.253 655.292 492.596 568.15 500.814 557.213C504.98 551.668 505.913 525.957 496.323 516.11C487 506.535 462.758 500.157 450.919 510.89Z" fill="#221960"/>
<path d="M263.554 632.887L347.468 697.077C347.468 697.077 365.026 680.35 368.256 664.09C368.256 664.09 345.919 657.922 337.308 635.147C337.308 635.147 281.935 619.648 276.28 620.401C270.624 621.155 263.554 632.887 263.554 632.887Z" fill="#1C1548"/>
<path d="M270.522 623.931C266.729 627.634 263.554 632.889 263.554 632.889L347.468 697.078C347.468 697.078 350.954 693.753 355.105 688.633L270.522 623.931Z" fill="#F2F2F2"/>
<path d="M324.363 654.743C323.047 654.299 321.563 653.084 320.314 650.236C316.222 640.915 324.527 633.957 329.491 631.581C329.961 631.356 330.508 631.338 330.985 631.557C331.464 631.766 331.827 632.175 331.98 632.674C335.059 642.749 331.9 652.953 327.234 654.683C326.621 654.91 325.563 655.148 324.363 654.743ZM329.117 635.931C326.081 637.923 320.822 642.472 323.598 648.793C324.222 650.215 325.176 651.622 325.987 651.321C327.931 650.6 330.824 644.078 329.117 635.931Z" fill="#E8E8E8"/>
<path d="M315.371 640.533C314.456 640.224 313.946 639.243 314.23 638.314L316.902 629.527C317.189 628.58 318.191 628.045 319.139 628.331C320.08 628.611 320.622 629.621 320.333 630.569L317.661 639.356C317.372 640.303 316.371 640.837 315.423 640.551L315.371 640.533Z" fill="#E8E8E8"/>
<path d="M304.434 637.221C303.559 636.925 303.042 636.005 303.268 635.093L305.371 626.589C305.608 625.627 306.58 625.041 307.542 625.281C308.487 625.494 309.09 626.488 308.852 627.45L306.749 635.953C306.511 636.916 305.539 637.502 304.578 637.263C304.528 637.252 304.481 637.236 304.434 637.221Z" fill="#E8E8E8"/>
<path d="M291.689 632.892C290.864 632.613 290.343 631.767 290.498 630.883L291.831 623.33C292.003 622.356 292.932 621.705 293.909 621.878C294.879 622.049 295.536 622.977 295.362 623.953L294.03 631.506C293.859 632.481 292.928 633.132 291.953 632.96C291.862 632.944 291.774 632.921 291.689 632.892Z" fill="#E8E8E8"/>
<path d="M456.856 699.604C456.856 699.604 445.021 744.072 448.046 747.668C451.073 751.264 478.541 758.483 481.526 755.62C484.509 752.756 499.236 689.191 497.046 686.819C494.855 684.447 466.49 673.419 456.856 699.604Z" fill="#FDE5DB"/>
<path d="M462.552 588.298C462.552 588.298 453.38 708.633 453.89 711.3C454.401 713.967 487.051 721.854 492.784 721.424C498.519 720.994 525.569 613.68 526.864 600.062C527.522 593.157 511.446 569.814 498.124 566.424C485.172 563.129 467.043 572.962 462.552 588.298Z" fill="#1C1548"/>
<path d="M386.37 764.452L491.494 774.983C491.494 774.983 497.645 751.525 491.852 735.993C491.852 735.993 469.604 742.48 450.312 727.623C450.312 727.623 395.054 743.529 390.638 747.14C386.222 750.753 386.37 764.452 386.37 764.452Z" fill="#1C1548"/>
<path d="M387.593 753.17C386.311 758.313 386.368 764.452 386.368 764.452L491.494 774.983C491.494 774.983 492.714 770.321 493.555 763.786L387.593 753.17Z" fill="#F2F2F2"/>
<path d="M448.035 751.189C446.885 751.072 445.475 750.565 443.778 749.393C435.4 743.611 438.812 733.33 441.787 728.7C442.069 728.26 442.53 727.965 443.047 727.892C443.562 727.823 444.088 727.976 444.48 728.323C452.393 735.278 455.066 745.617 452.004 749.542C451.454 750.248 450.201 751.409 448.035 751.189ZM443.755 732.596C442.218 735.888 440.134 742.521 445.816 746.444C447.093 747.323 448.643 748.024 449.175 747.337C450.452 745.701 449.487 738.632 443.755 732.596Z" fill="#E8E8E8"/>
<path d="M433.893 743.769C433.17 743.696 432.536 743.186 432.34 742.443L429.997 733.563C429.744 732.605 430.316 731.625 431.274 731.372C432.23 731.122 433.212 731.691 433.463 732.649L435.806 741.528C436.059 742.487 435.488 743.467 434.531 743.72C434.317 743.776 434.101 743.79 433.893 743.769Z" fill="#E8E8E8"/>
<path d="M422.846 746.698C422.159 746.628 421.544 746.163 421.319 745.463L418.642 737.123C418.34 736.18 418.859 735.17 419.801 734.867C420.745 734.56 421.754 735.081 422.057 736.026L424.734 744.366C425.036 745.308 424.517 746.319 423.576 746.62C423.332 746.7 423.085 746.722 422.846 746.698Z" fill="#E8E8E8"/>
<path d="M409.731 749.712C409.086 749.646 408.5 749.233 408.244 748.591L405.41 741.466C405.044 740.546 405.493 739.503 406.414 739.137C407.337 738.768 408.375 739.222 408.743 740.139L411.576 747.264C411.942 748.185 411.493 749.227 410.573 749.593C410.296 749.704 410.008 749.74 409.731 749.712Z" fill="#E8E8E8"/>
<path d="M682.674 527.385C682.674 527.385 712.501 525.162 708.104 568.163C703.706 611.163 682.411 630.377 612.265 625.606C542.118 620.837 517.989 621.481 517.989 621.481C517.989 621.481 486.83 615.465 488.264 593.987C489.697 572.509 490.307 548.119 518.911 540.393C533.087 536.566 536.06 535.44 582.669 529.925C630.102 524.313 670.116 525.487 682.674 527.385Z" fill="#1C1548"/>
<path d="M656.538 507.942C656.538 507.942 631.867 519.722 617.101 519.095C602.336 518.469 471.085 501.756 461.22 507.05C451.353 512.345 443.853 525.907 447.762 550.822C451.673 575.737 549.775 600.507 562.282 604.454C574.788 608.402 659.342 623.692 691.606 601.97C723.873 580.248 716.963 483.792 656.538 507.942Z" fill="#221960"/>
<path d="M573.828 473.001C573.828 473.001 515.787 401.547 504.736 403.125C493.686 404.704 490.46 409.755 491.61 416.116C492.76 422.475 537.128 498.62 554.861 507.403C572.593 516.186 590.981 502.934 573.828 473.001Z" fill="#FDE5DB"/>
<path d="M493.039 345.927L497.311 341.251C497.311 341.251 504.09 345.298 496.733 355.789C489.374 366.279 486.299 372.362 489.653 381.83C493.009 391.298 472.471 374.357 473.679 372.155C474.889 369.954 493.039 345.927 493.039 345.927Z" fill="#EEC5B5"/>
<path d="M486.36 342.671L493.623 336.532C493.623 336.532 500.006 339.987 493.513 349.364C487.018 358.741 482.733 369.942 490.505 381.273C498.276 392.604 475.741 381.178 475.876 366.936C476.01 352.695 486.36 342.671 486.36 342.671Z" fill="#F6CFBE"/>
<path d="M494.764 423.469C493.828 422.155 472.299 387.798 470.402 357.62C470.127 353.251 487.216 333.842 487.216 333.842C487.216 333.842 494.34 336.803 485.353 349.668C476.365 362.535 486.454 378.369 492.259 378.91C498.066 379.45 499.642 373.465 499.368 371.611C499.095 369.758 498.492 360.51 502.1 358.528C502.1 358.528 510.195 368.879 509.705 373.924C509.217 378.969 504.407 391.51 505.4 395.565C506.393 399.618 521.233 415.622 522.053 416.642C522.871 417.66 519.451 427.669 512.035 430.049C504.619 432.43 499.735 430.443 494.764 423.469Z" fill="#FDE5DB"/>
<path d="M514.405 396.152L511.372 398.25C509.569 399.496 507.096 399.045 505.848 397.242L467.731 342.114C466.484 340.311 466.934 337.838 468.737 336.591L471.772 334.494C473.575 333.247 476.047 333.698 477.293 335.501L515.413 390.629C516.659 392.432 516.208 394.905 514.405 396.152Z" fill="#29D884"/>
<path d="M477.733 335.741L520.759 270.795L584.543 361.442C584.543 361.442 515.022 393.398 513.103 392.39C511.184 391.382 477.733 335.741 477.733 335.741Z" fill="url(#paint0_linear_524_330)"/>
<path d="M511.095 403.996C508.208 400.44 505.781 397.12 505.4 395.563C504.407 391.509 509.217 378.969 509.706 373.924C510.196 368.88 502.1 358.527 502.1 358.527C498.492 360.51 499.095 369.756 499.369 371.611C499.642 373.465 498.066 379.449 492.26 378.908C490.746 378.767 488.941 377.578 487.257 375.679C487.115 395.026 503.13 401.511 511.095 403.996Z" fill="#FDE5DB"/>
<path d="M564.034 427.905L549.684 483.174C549.684 483.174 542.319 500.513 556.456 508.506C570.592 516.499 581.252 501.29 581.252 501.29C581.252 501.29 603.897 474.522 605.814 444.342C607.73 414.161 564.034 427.905 564.034 427.905Z" fill="#FDE5DB"/>
<path d="M564.034 427.905L556.342 457.528C559.317 463.872 571.191 485.612 593.217 483.405C598.991 473.012 604.877 459.088 605.814 444.341C607.73 414.16 564.034 427.905 564.034 427.905Z" fill="#F6CFBE"/>
<path d="M590.147 346.925C590.147 346.925 553.26 412.87 550.312 445.165C549.126 458.167 575.621 480.495 594.52 477.924C613.421 475.353 652.93 425.372 646.602 397.34C640.275 369.309 631.713 303.996 590.147 346.925Z" fill="#ECEEF5"/>
<path d="M543.627 642.065L531.243 764.772" stroke="#221960" stroke-width="10.4716" stroke-linecap="round" stroke-linejoin="round"/>
<path d="M559.832 641.974L561.332 768.427" stroke="#221960" stroke-width="10.4716" stroke-linecap="round" stroke-linejoin="round"/>
<path d="M668.96 641.991L659.279 768.427" stroke="#221960" stroke-width="10.4716" stroke-linecap="round" stroke-linejoin="round"/>
<path d="M684.559 641.974L695.805 768.427" stroke="#221960" stroke-width="10.4716" stroke-linecap="round" stroke-linejoin="round"/>
<path d="M687.361 653.874H706.586C729.925 653.874 748.847 633.936 748.847 609.342V526.938" stroke="#221960" stroke-width="10.4716" stroke-miterlimit="10"/>
<path d="M738.038 538.681L719.74 534.757V390.42L735.847 385.087C747.768 381.139 760.747 388.387 760.747 398.992V524.18C760.747 533.984 749.531 541.146 738.038 538.681Z" fill="#29D884"/>
<path d="M697.94 644.979L530.376 645.029L521.238 628.444L523.067 619.501L527.042 617.218H697.94V644.979Z" fill="#29D884"/>
<path d="M652.338 534.759C624.44 507.53 595.871 517.872 591.623 514.031C585.456 508.454 608.679 496.267 595.478 446.444C586.708 413.339 553.256 374.837 598.885 337.002C632.616 309.032 691.749 327.348 698.769 336.192C705.789 345.036 743.487 551.828 728.326 570.82C716.088 586.148 679.894 561.655 652.338 534.759Z" fill="#F7F7F7"/>
<path d="M713.744 401.203C712.111 398.757 710.386 396.131 708.545 393.275C686.805 359.52 695.838 358.847 684.093 356.83C672.349 354.812 666.634 354.812 666.634 354.812C666.634 354.812 648.816 389.441 672.349 428.777C695.353 467.225 646.256 488.776 597.237 493.402C593.803 505.814 588.208 510.944 591.623 514.031C595.871 517.872 624.441 507.531 652.338 534.76C679.895 561.656 716.089 586.15 728.325 570.82C738.206 558.445 725.64 466.333 713.744 401.203Z" fill="#EDF0F1"/>
<path d="M628.283 340.131C624.231 340.132 620.743 339.16 618.912 337.299C617.423 335.787 616.826 334.159 617.134 332.46C617.891 328.304 624.017 325.423 624.278 325.302C624.724 325.093 625.26 325.29 625.467 325.738C625.675 326.188 625.481 326.721 625.031 326.93C623.49 327.646 619.385 330.092 618.897 332.782C618.697 333.889 619.12 334.956 620.19 336.041C622.804 338.696 630.008 339.119 636.595 337.001C640.279 335.817 649.009 332.036 650.506 322.503C650.586 322.01 651.053 321.685 651.531 321.756C652.021 321.832 652.356 322.291 652.279 322.78C651.116 330.186 645.598 335.993 637.143 338.708C634.161 339.667 631.086 340.131 628.283 340.131Z" fill="#ECEEF5"/>
<path d="M646.662 302.61C647.385 292.653 623.311 313.39 623.311 313.39C623.311 313.39 626.505 319.708 622.873 325.083C624.231 329.664 622.091 333.176 626.531 334.356C633.803 336.291 646.906 331.071 649.252 322.554C649.252 322.554 645.879 313.376 646.662 302.61Z" fill="#FDE5DB"/>
<path d="M622.873 325.082C623.352 326.699 623.396 328.182 623.446 329.477C623.446 329.477 642.149 320.826 646.662 302.609C647.384 292.653 623.31 313.39 623.31 313.39C623.31 313.39 626.505 319.707 622.873 325.082Z" fill="#F6CFBE"/>
<path d="M715.581 466.642C715.581 466.642 625.37 484.982 621.649 495.507C617.929 506.032 620.912 511.231 627.081 513.157C633.251 515.084 721.286 511.034 737.283 499.387C753.28 487.741 750.054 465.305 715.581 466.642Z" fill="#FDE5DB"/>
<path d="M572.452 537.096L571.669 543.383C571.669 543.383 579.149 545.91 582.351 533.503C585.553 521.096 588.184 514.808 597.562 511.214C606.942 507.619 580.722 502.995 579.833 505.344C578.943 507.693 572.452 537.096 572.452 537.096Z" fill="#EEC5B5"/>
<path d="M565.639 534.132L565.686 543.642C565.686 543.642 572.457 546.254 575.373 535.227C578.29 524.2 584.027 513.669 597.691 512.224C611.355 510.779 588.034 501.056 577.288 510.404C566.543 519.752 565.639 534.132 565.639 534.132Z" fill="#F6CFBE"/>
<path d="M632.552 488.067C630.944 488.208 590.835 494.139 566.649 512.287C563.148 514.914 559.481 540.513 559.481 540.513C559.481 540.513 566.356 544.011 570.308 528.822C574.259 513.634 592.853 511.028 597.033 515.093C601.214 519.157 597.684 524.242 596.096 525.238C594.509 526.233 587.084 531.777 587.919 535.808C587.919 535.808 601.049 535.244 604.568 531.597C608.086 527.949 614.503 516.151 618.231 514.274C621.958 512.396 643.766 513.294 645.073 513.256C646.38 513.218 651.772 504.118 648.768 496.932C645.765 489.746 641.084 487.32 632.552 488.067Z" fill="#FDE5DB"/>
<path d="M698.48 426.534L711.881 482.041C711.881 482.041 713.561 500.804 729.796 501.189C746.031 501.573 748.262 483.134 748.262 483.134C748.262 483.134 755.613 448.852 743.075 421.332C730.537 393.812 698.48 426.534 698.48 426.534Z" fill="#FDE5DB"/>
<path d="M749.867 448.239C749.023 439.461 747.051 430.059 743.075 421.332C730.537 393.812 698.48 426.535 698.48 426.535L705.611 456.069C705.612 456.07 724.525 469.141 749.867 448.239Z" fill="#F6CFBE"/>
<path d="M680.11 332.965C680.11 332.965 641.745 361.17 675.776 410.205C707.484 455.892 700.774 457.017 710.921 456.878C721.068 456.74 755.235 449.09 749.066 432.943C749.066 432.943 712.055 307.984 680.11 332.965Z" fill="#F7F7F7"/>
<path d="M649.108 265.707C661.237 290.16 639.537 322.139 618.657 324.995C597.777 327.851 586.19 291.998 584.221 264.774C582.317 238.447 603.917 258.259 622.921 249.151C629.609 245.946 637.469 242.241 649.108 265.707Z" fill="#FDE5DB"/>
<path d="M608.366 266.678C608.366 266.678 601.833 287.913 583.928 287.49C583.928 287.49 567.796 288.531 572.782 266.757C574.647 258.613 581.773 252.21 594.461 243.832C620.333 226.749 656.784 239.093 654.733 275.61C654.344 282.548 653.749 293.146 648.361 299.354C648.361 299.354 651.938 283.47 641.495 280.261C634.049 277.973 633.255 287.557 633.255 287.557C633.255 287.557 632.53 287.708 629.962 280.944C623.368 263.591 616.954 285.845 608.366 266.678Z" fill="#1C1548"/>
<path d="M625.171 289.906C625.833 292.306 624.423 294.789 622.023 295.45C619.623 296.111 617.142 294.701 616.48 292.301C615.819 289.902 617.228 287.421 619.628 286.759C622.028 286.098 624.51 287.506 625.171 289.906Z" fill="#FBCCCA"/>
<path d="M602.394 300.778C603.09 303.301 601.607 305.91 599.084 306.606C596.561 307.3 593.952 305.819 593.256 303.296C592.561 300.772 594.043 298.163 596.566 297.468C599.09 296.772 601.699 298.255 602.394 300.778Z" fill="#FBCCCA"/>
<path d="M614.834 297.988C613.057 297.988 611.267 297.387 609.637 296.219C607.427 294.633 605.774 292.183 604.984 289.316C603.337 283.333 606.005 277.36 610.933 276C615.86 274.641 621.213 278.407 622.863 284.391C624.51 290.376 621.842 296.348 616.914 297.705C616.229 297.894 615.532 297.988 614.834 297.988ZM613.001 277.514C612.468 277.514 611.936 277.584 611.408 277.729C607.434 278.826 605.328 283.81 606.714 288.84C607.394 291.311 608.804 293.415 610.682 294.762C612.501 296.067 614.543 296.497 616.437 295.978C620.413 294.883 622.519 289.897 621.133 284.866C619.932 280.502 616.489 277.514 613.001 277.514Z" fill="#29D884"/>
<path d="M597.137 303.992C595.467 303.992 593.748 303.272 592.17 301.889C590.214 300.171 588.691 297.608 587.882 294.672C586.176 288.48 588.235 282.494 592.469 281.327C596.701 280.169 601.537 284.248 603.243 290.441C604.052 293.377 604.056 296.358 603.256 298.835C602.411 301.443 600.776 303.202 598.656 303.787C598.157 303.923 597.65 303.992 597.137 303.992ZM593.998 282.914C593.642 282.914 593.289 282.959 592.944 283.055C589.663 283.961 588.167 288.958 589.612 294.195C590.328 296.798 591.659 299.051 593.356 300.54C594.947 301.936 596.66 302.476 598.181 302.058C599.701 301.639 600.897 300.299 601.549 298.283C602.243 296.135 602.23 293.519 601.512 290.917C600.222 286.23 597.009 282.914 593.998 282.914Z" fill="#29D884"/>
<path d="M600.025 286.63C599.792 286.63 599.561 286.542 599.385 286.365C599.04 286.013 599.04 285.451 599.391 285.102C599.488 285.005 601.812 282.726 605.611 283.096C606.104 283.144 606.463 283.583 606.416 284.076C606.367 284.57 605.926 284.934 605.435 284.88C602.494 284.586 600.727 286.303 600.652 286.376C600.478 286.546 600.25 286.63 600.025 286.63Z" fill="#29D884"/>
<path d="M620.158 281.631C619.726 281.631 619.344 281.317 619.274 280.875C619.197 280.386 619.531 279.927 620.022 279.85L637.922 277.047C638.401 276.975 638.87 277.303 638.946 277.794C639.023 278.282 638.689 278.742 638.2 278.818L620.298 281.622C620.251 281.629 620.206 281.631 620.158 281.631Z" fill="#29D884"/>
<path d="M607.51 304.324C606.662 304.324 606.081 303.965 605.719 303.618C603.578 301.569 604.641 295.594 604.875 294.417C604.971 293.931 605.451 293.616 605.93 293.714C606.415 293.811 606.729 294.283 606.633 294.768C606.131 297.296 605.9 301.31 606.958 302.322C607.109 302.468 607.349 302.614 607.918 302.477C608.406 302.353 608.883 302.655 609.001 303.134C609.119 303.614 608.826 304.1 608.344 304.217C608.041 304.293 607.763 304.324 607.51 304.324Z" fill="#F6CFBE"/>
<path d="M633.255 287.557C633.403 293.211 637.136 297.701 641.595 297.584C646.054 297.467 649.548 292.789 649.399 287.135C649.252 281.48 645.517 276.991 641.058 277.108C636.6 277.225 633.106 281.903 633.255 287.557Z" fill="#FDE5DB"/>
<path d="M644.775 293.06C644.606 293.06 644.437 293.013 644.285 292.915C643.871 292.645 643.754 292.089 644.023 291.674C644.659 290.698 644.991 289.449 644.956 288.158C644.879 285.297 643.034 283.009 640.919 283.074C639.956 283.098 639.041 283.601 638.341 284.491C638.035 284.881 637.472 284.946 637.082 284.641C636.694 284.335 636.627 283.771 636.934 283.382C637.968 282.066 639.368 281.321 640.874 281.281C643.961 281.214 646.646 284.263 646.749 288.11C646.793 289.762 646.357 291.375 645.526 292.653C645.355 292.916 645.067 293.06 644.775 293.06Z" fill="#F6CFBE"/>
<path d="M606.032 313.349L617.051 306.365C617.051 306.365 618.778 315.642 612.832 317.331C608.501 318.56 606.032 313.349 606.032 313.349Z" fill="#FFB9BA"/>
<path d="M617.051 306.365L606.032 313.349C606.032 313.349 606.373 314.066 607.019 314.902L617.265 310.014C617.435 307.759 617.051 306.365 617.051 306.365Z" fill="white"/>
<path d="M608.365 284.107C608.245 284.107 608.124 284.085 608.006 284.034C607.553 283.835 607.346 283.306 607.544 282.852C608.269 281.188 610.921 278.275 615.808 279.161C616.294 279.25 616.617 279.717 616.529 280.205C616.439 280.693 615.962 281.003 615.485 280.925C610.792 280.063 609.202 283.534 609.186 283.571C609.039 283.907 608.71 284.107 608.365 284.107Z" fill="#1C1548"/>
<path d="M590.575 286.791C590.195 286.791 589.842 286.549 589.722 286.168C589.57 285.697 589.829 285.192 590.299 285.04C595.475 283.38 597.398 284.298 597.734 284.497C598.158 284.753 598.297 285.303 598.041 285.728C597.793 286.144 597.258 286.283 596.84 286.051C596.753 286.011 595.169 285.36 590.85 286.748C590.759 286.776 590.666 286.791 590.575 286.791Z" fill="#1C1548"/>
<path d="M596.05 293.484C596.288 295.232 595.662 296.761 594.65 296.899C593.639 297.038 592.625 295.733 592.385 293.985C592.146 292.238 592.772 290.709 593.785 290.57C594.796 290.432 595.811 291.736 596.05 293.484Z" fill="#1C1548"/>
<path d="M611.915 288.282C612.154 290.03 611.528 291.559 610.515 291.697C609.504 291.836 608.491 290.531 608.251 288.783C608.012 287.036 608.638 285.507 609.65 285.368C610.662 285.23 611.676 286.534 611.915 288.282Z" fill="#1C1548"/>
<defs>
<linearGradient id="paint0_linear_524_330" x1="544.119" y1="323.076" x2="409.255" y2="439.16" gradientUnits="userSpaceOnUse">
<stop stop-color="#29D884" stop-opacity="0"/>
<stop offset="0.56" stop-color="#14B567" stop-opacity="0.43"/>
<stop offset="1" stop-color="#14B567" stop-opacity="0.35"/>
</linearGradient>
</defs>
</svg>
