<svg width="383" height="383" viewBox="0 0 383 383" fill="none" xmlns="http://www.w3.org/2000/svg">
<path d="M354.948 169.223C354.948 235.823 281.685 334.377 191.309 334.377C100.934 334.377 27.6777 235.823 27.6777 169.223C27.6777 102.624 100.934 48.623 191.309 48.623C281.685 48.623 354.948 102.632 354.948 169.223Z" fill="#fff"/>
</svg>
