[
  {
    "title": "El 39% de los españoles volvería a llevar los pantalones de tiro bajo de los añorados 2000",
    "short_description": "Un estudio de Wallapop revela a qué tendencias nacidas con el cambio de milenio desearían dar una segunda oportunidad los españoles: los pantalones de tiro bajo, Estopa y los mp3 son solo algunas de ellas. Sabemos que tarde o temprano todas las modas vuelven y con los elementos icónicos de los 2000 no iba a ser como lo habia mencionado en este punto de contratar un abogado",
    "created_at": "24/03/2022",
    "author": "Leudy Martes",
    "slug": "el-39-por-ciento-de-los-espanoles-volveria-a-llevar-los-pantalones-de-tiro-bajo-de-los-añorados-2000"
  },
  {
    "title": "Los precios y la falta de ayudas hacen que la entrada del coche eléctrico se retrase en España",
    "short_description": "Dentro de la webinar “Sostenibilidad y Automoción” varios expertos del sector debatieron sobre los retos a los que se enfrenta el país en el camino hacia un parque de vehículos más sostenible  Junto a la moderadora Bárbara Patiño, Key Account Manager Motor de Wallapop estuvieron presentes María Negro escritora y divulgadora de sostenibilidad, Eric Iglesias temprano todas las modas vuelven y con los elementos icónicos de los 2000 no iba a ser como lo habia mencionado en este punto de contratar un abogado",
    "created_at": "20/03/2022",
    "author": "Leudy Martes",
    "slug": "los-precios-y-la-falta-de-ayudas-hacen-que-la-entrada-del-coche-electrico-se-retrase-en-españa"
  },

  {
    "title": "Los precios y la falta de ayudas hacen que la entrada del coche eléctrico se retrase en España",
    "short_description": "Dentro de la webinar “Sostenibilidad y Automoción” varios expertos del sector debatieron sobre los retos a los que se enfrenta el país en el camino hacia un parque de vehículos más sostenible  Junto a la moderadora Bárbara Patiño, Key Account Manager Motor de Wallapop estuvieron presentes María Negro escritora y divulgadora de sostenibilidad, Eric Iglesias temprano todas las modas vuelven y con los elementos icónicos de los 2000 no iba a ser como lo habia mencionado en este punto de contratar un abogado",
    "created_at": "20/03/2022",
    "author": "Leudy Martes",
    "slug": "los-precios-y-la-falta-de-ayudas-hacen-que-la-entrada-del-coche-electrico-se-retrase-en-españa"
  },


  {
    "title": "Los precios y la falta de ayudas hacen que la entrada del coche eléctrico se retrase en España",
    "short_description": "Dentro de la webinar “Sostenibilidad y Automoción” varios expertos del sector debatieron sobre los retos a los que se enfrenta el país en el camino hacia un parque de vehículos más sostenible  Junto a la moderadora Bárbara Patiño, Key Account Manager Motor de Wallapop estuvieron presentes María Negro escritora y divulgadora de sostenibilidad, Eric Iglesias temprano todas las modas vuelven y con los elementos icónicos de los 2000 no iba a ser como lo habia mencionado en este punto de contratar un abogado",
    "created_at": "20/03/2022",
    "author": "Leudy Martes",
    "slug": "los-precios-y-la-falta-de-ayudas-hacen-que-la-entrada-del-coche-electrico-se-retrase-en-españa"
  }
]
