{
  "title": "El 39% de los españoles volvería a llevar los pantalones de tiro bajo de los añorados 2000",
  "short_description": "Un estudio de Wallapop revela a qué tendencias nacidas con el cambio de milenio desearían dar una segunda oportunidad los españoles: los pantalones de tiro bajo, Estopa y los mp3 son solo algunas de ellas. Sabemos que tarde o temprano todas las modas vuelven y con los elementos icónicos de los 2000 no iba a ser como lo habia mencionado en este punto de contratar un abogado",
  "created_at": "24/03/2022",
  "author": "Leudy Martes",
  "image": "https://internenes.com/wp-content/uploads/2019/10/3-2018-09-12_11-21-47.jpg",
  "tags": "Rent a car, Republica dominicana, corotos, alquiler, carros, vehiculos",
  "slug": "el-39-por-ciento-de-los-espanoles-volveria-a-llevar-los-pantalones-de-tiro-bajo-de-los-añorados-2000",
  "content": "<p></p>"
}
