[
  {
    "id": "1",
    "name": "Santo Domingo"
  },
  {
    "id": "1",
    "name": "Azua"
  },
  {
    "id": "1",
    "name": "Baoruco"
  },
  {
    "id": "1",
    "name": "Barahona"
  },
  {
    "id": "1",
    "name": "Dajabón"
  },
  {
    "id": "1",
    "name": "San Francisco de Macorís"
  },
  {
    "id": "1",
    "name": "El Seibo"
  },
  {
    "id": "1",
    "name": "Elías Piña"
  },
  {
    "id": "1",
    "name": "Espaillat"
  },
  {
    "id": "1",
    "name": "Hato Mayor"
  },
  {
    "id": "1",
    "name": "Hermanas Mirabal"
  },
  {
    "id": "1",
    "name": "Independencia"
  },
  {
    "id": "1",
    "name": "La Altagracia"
  },
  {
    "id": "1",
    "name": "La Romana"
  },
  {
    "id": "1",
    "name": "La Vega"
  },
  {
    "id": "1",
    "name": "Nagua"
  },
  {
    "id": "1",
    "name": "Bonao"
  },
  {
    "id": "1",
    "name": "Monte Plata"
  },
  {
    "id": "1",
    "name": "Montecristi"
  },
  {
    "id": "1",
    "name": "Pedernales"
  },
  {
    "id": "1",
    "name": "Peravia"
  },
  {
    "id": "1",
    "name": "Puerto Plata"
  },
  {
    "id": "1",
    "name": "Samaná"
  },
  {
    "id": "1",
    "name": "San Cristóbal"
  },
  {
    "id": "1",
    "name": "San José de Ocoa"
  },
  {
    "id": "1",
    "name": "San Juan de la Maguana"
  },
  {
    "id": "1",
    "name": "San Pedro de Macorís"
  },
  {
    "id": "1",
    "name": "Sánchez Ramírez"
  },
  {
    "id": "1",
    "name": "Santiago"
  },
  {
    "id": "1",
    "name": "Santiago Rodríguez"
  },
  {
    "id": "1",
    "name": "Valverde Mao"
  }
]
